<?xml version="1.0" standalone="no"?>
<!DOCTYPE svg PUBLIC "-//W3C//DTD SVG 1.1//EN"
   "http://www.w3.org/Graphics/SVG/1.1/DTD/svg11.dtd">

<svg width="1145" height="384" version="1.1" xmlns="http://www.w3.org/2000/svg">
<text style="fill: blue; font-size: 12px;" x="558" y="22">ROOT</text>
<text style="fill: blue; font-size: 12px;" x="558" y="66">S-REL</text>
<line style="stroke:rgb(0,0,0);stroke-width:1;" x1="572" y1="49" x2="572" y2="27" />
<text style="fill: blue; font-size: 12px;" x="285" y="110">NP-REL</text>
<line style="stroke:rgb(0,0,0);stroke-width:1;" x1="302" y1="93" x2="572" y2="71" />
<text style="fill: blue; font-size: 12px;" x="835" y="110">VP</text>
<line style="stroke:rgb(0,0,0);stroke-width:1;" x1="843" y1="93" x2="572" y2="71" />
<text style="fill: blue; font-size: 12px;" x="1101" y="110">.-REL</text>
<line style="stroke:rgb(0,0,0);stroke-width:1;" x1="1114" y1="93" x2="572" y2="71" />
<text style="fill: blue; font-size: 12px;" x="71" y="154">NP</text>
<line style="stroke:rgb(0,0,0);stroke-width:1;" x1="79" y1="137" x2="302" y2="115" />
<text style="fill: blue; font-size: 12px;" x="167" y="154">,-REL</text>
<line style="stroke:rgb(0,0,0);stroke-width:1;" x1="179" y1="137" x2="302" y2="115" />
<text style="fill: blue; font-size: 12px;" x="368" y="154">NP</text>
<line style="stroke:rgb(0,0,0);stroke-width:1;" x1="376" y1="137" x2="302" y2="115" />
<text style="fill: blue; font-size: 12px;" x="560" y="154">,-REL</text>
<line style="stroke:rgb(0,0,0);stroke-width:1;" x1="572" y1="137" x2="302" y2="115" />
<text style="fill: blue; font-size: 12px;" x="616" y="154">VBD</text>
<line style="stroke:rgb(0,0,0);stroke-width:1;" x1="628" y1="137" x2="843" y2="115" />
<text style="fill: blue; font-size: 12px;" x="723" y="154">NP-REL</text>
<line style="stroke:rgb(0,0,0);stroke-width:1;" x1="740" y1="137" x2="843" y2="115" />
<text style="fill: blue; font-size: 12px;" x="948" y="154">PP</text>
<line style="stroke:rgb(0,0,0);stroke-width:1;" x1="955" y1="137" x2="843" y2="115" />
<text style="fill: blue; font-size: 12px;" x="1106" y="154">.::.</text>
<line style="stroke:rgb(0,0,0);stroke-width:1;" x1="1114" y1="137" x2="1114" y2="115" />
<text style="fill: blue; font-size: 12px;" x="40" y="198">JJ</text>
<line style="stroke:rgb(0,0,0);stroke-width:1;" x1="46" y1="181" x2="79" y2="159" />
<text style="fill: blue; font-size: 12px;" x="109" y="198">NNS</text>
<line style="stroke:rgb(0,0,0);stroke-width:1;" x1="120" y1="181" x2="79" y2="159" />
<text style="fill: blue; font-size: 12px;" x="172" y="198">,::,</text>
<line style="stroke:rgb(0,0,0);stroke-width:1;" x1="179" y1="181" x2="179" y2="159" />
<text style="fill: blue; font-size: 12px;" x="297" y="198">NP</text>
<line style="stroke:rgb(0,0,0);stroke-width:1;" x1="305" y1="181" x2="376" y2="159" />
<text style="fill: blue; font-size: 12px;" x="468" y="198">PP</text>
<line style="stroke:rgb(0,0,0);stroke-width:1;" x1="475" y1="181" x2="376" y2="159" />
<text style="fill: blue; font-size: 12px;" x="565" y="198">,::,</text>
<line style="stroke:rgb(0,0,0);stroke-width:1;" x1="572" y1="181" x2="572" y2="159" />
<text style="fill: blue; font-size: 12px;" x="614" y="198">fall::v</text>
<line style="stroke:rgb(0,0,0);stroke-width:1;" x1="628" y1="181" x2="628" y2="159" />
<text style="fill: blue; font-size: 12px;" x="675" y="198">CD-REL</text>
<line style="stroke:rgb(0,0,0);stroke-width:1;" x1="693" y1="181" x2="740" y2="159" />
<text style="fill: blue; font-size: 12px;" x="758" y="198">NN-REL</text>
<line style="stroke:rgb(0,0,0);stroke-width:1;" x1="776" y1="181" x2="740" y2="159" />
<text style="fill: blue; font-size: 12px;" x="837" y="198">TO</text>
<line style="stroke:rgb(0,0,0);stroke-width:1;" x1="846" y1="181" x2="955" y2="159" />
<text style="fill: blue; font-size: 12px;" x="970" y="198">NP</text>
<line style="stroke:rgb(0,0,0);stroke-width:1;" x1="978" y1="181" x2="955" y2="159" />
<text style="fill: blue; font-size: 12px;" x="26" y="242">license::j</text>
<line style="stroke:rgb(0,0,0);stroke-width:1;" x1="46" y1="225" x2="46" y2="203" />
<text style="fill: blue; font-size: 12px;" x="104" y="242">sale::n</text>
<line style="stroke:rgb(0,0,0);stroke-width:1;" x1="120" y1="225" x2="120" y2="203" />
<text style="fill: blue; font-size: 12px;" x="219" y="242">DT</text>
<line style="stroke:rgb(0,0,0);stroke-width:1;" x1="227" y1="225" x2="305" y2="203" />
<text style="fill: blue; font-size: 12px;" x="270" y="242">JJ</text>
<line style="stroke:rgb(0,0,0);stroke-width:1;" x1="275" y1="225" x2="305" y2="203" />
<text style="fill: blue; font-size: 12px;" x="345" y="242">NN</text>
<line style="stroke:rgb(0,0,0);stroke-width:1;" x1="353" y1="225" x2="305" y2="203" />
<text style="fill: blue; font-size: 12px;" x="419" y="242">IN</text>
<line style="stroke:rgb(0,0,0);stroke-width:1;" x1="426" y1="225" x2="475" y2="203" />
<text style="fill: blue; font-size: 12px;" x="488" y="242">NP</text>
<line style="stroke:rgb(0,0,0);stroke-width:1;" x1="496" y1="225" x2="475" y2="203" />
<text style="fill: blue; font-size: 12px;" x="680" y="242">21::c</text>
<line style="stroke:rgb(0,0,0);stroke-width:1;" x1="693" y1="225" x2="693" y2="203" />
<text style="fill: blue; font-size: 12px;" x="753" y="242">percent::n</text>
<line style="stroke:rgb(0,0,0);stroke-width:1;" x1="776" y1="225" x2="776" y2="203" />
<text style="fill: blue; font-size: 12px;" x="835" y="242">to::t</text>
<line style="stroke:rgb(0,0,0);stroke-width:1;" x1="846" y1="225" x2="846" y2="203" />
<text style="fill: blue; font-size: 12px;" x="961" y="242">QP-REL</text>
<line style="stroke:rgb(0,0,0);stroke-width:1;" x1="978" y1="225" x2="978" y2="203" />
<text style="fill: blue; font-size: 12px;" x="217" y="286">a::d</text>
<line style="stroke:rgb(0,0,0);stroke-width:1;" x1="227" y1="269" x2="227" y2="247" />
<text style="fill: blue; font-size: 12px;" x="263" y="286">key::j</text>
<line style="stroke:rgb(0,0,0);stroke-width:1;" x1="275" y1="269" x2="275" y2="247" />
<text style="fill: blue; font-size: 12px;" x="329" y="286">measure::n</text>
<line style="stroke:rgb(0,0,0);stroke-width:1;" x1="353" y1="269" x2="353" y2="247" />
<text style="fill: blue; font-size: 12px;" x="415" y="286">of::i</text>
<line style="stroke:rgb(0,0,0);stroke-width:1;" x1="426" y1="269" x2="426" y2="247" />
<text style="fill: blue; font-size: 12px;" x="488" y="286">NN</text>
<line style="stroke:rgb(0,0,0);stroke-width:1;" x1="496" y1="269" x2="496" y2="247" />
<text style="fill: blue; font-size: 12px;" x="884" y="286">$-REL</text>
<line style="stroke:rgb(0,0,0);stroke-width:1;" x1="898" y1="269" x2="978" y2="247" />
<text style="fill: blue; font-size: 12px;" x="990" y="286">QP-REL</text>
<line style="stroke:rgb(0,0,0);stroke-width:1;" x1="1007" y1="269" x2="978" y2="247" />
<text style="fill: blue; font-size: 12px;" x="472" y="330">demand::n</text>
<line style="stroke:rgb(0,0,0);stroke-width:1;" x1="496" y1="313" x2="496" y2="291" />
<text style="fill: blue; font-size: 12px;" x="888" y="330">$::$</text>
<line style="stroke:rgb(0,0,0);stroke-width:1;" x1="898" y1="313" x2="898" y2="291" />
<text style="fill: blue; font-size: 12px;" x="948" y="330">CD-REL</text>
<line style="stroke:rgb(0,0,0);stroke-width:1;" x1="965" y1="313" x2="1007" y2="291" />
<text style="fill: blue; font-size: 12px;" x="1028" y="330">CD-REL</text>
<line style="stroke:rgb(0,0,0);stroke-width:1;" x1="1046" y1="313" x2="1007" y2="291" />
<text style="fill: blue; font-size: 12px;" x="946" y="374">107.6::c</text>
<line style="stroke:rgb(0,0,0);stroke-width:1;" x1="965" y1="357" x2="965" y2="335" />
<text style="fill: blue; font-size: 12px;" x="1025" y="374">million::c</text>
<line style="stroke:rgb(0,0,0);stroke-width:1;" x1="1046" y1="357" x2="1046" y2="335" />
</svg>
